Multiple regression
…
Explanation of the command: There may be a neater way of doing this, but here we simply:

Create all combinations of words, colors, spatial locations and positions in the sequence (1,2 or 3)

Filter our rows where two of the words are the same

Another way to do the same thing using the unique and length functions might be:

expand.grid(colour=colours, position=positions, word1 = words, word2=words, word3=words) %>% 
  rowwise() %>% 
  filter(length(unique(c(word1, word2, word3)))==3)

## # A tibble: 24 x 5
## # Rowwise: 
##    colour position word1  word2  word3 
##    <fct>  <fct>    <fct>  <fct>  <fct> 
##  1 Red    Top      Hobble Wobble Nobble
##  2 Green  Top      Hobble Wobble Nobble
##  3 Red    Bottom   Hobble Wobble Nobble
##  4 Green  Bottom   Hobble Wobble Nobble
##  5 Red    Top      Wobble Hobble Nobble
##  6 Green  Top      Wobble Hobble Nobble
##  7 Red    Bottom   Wobble Hobble Nobble
##  8 Green  Bottom   Wobble Hobble Nobble
##  9 Red    Top      Hobble Nobble Wobble
## 10 Green  Top      Hobble Nobble Wobble
## #  with 14 more rows
…
