Reproducing a real paper
…
download.file(url='https://github.com/benwhalley/datafluency/raw/master/data/pone.0192758.s002.xls', 
              destfile = 'pone.0192758.s002.xls')

Explanation: download.file does what it says on the tin. Pass the URL of the file to download, and the name you want to save it as in your folder on the RStudio server. If you run it it will save a copy of the remote file into your RStudio folder/project.

Watch out not to edit this saved file directly though. If you ran download.file a second time any changes made to destfile would be lost/overwritten. Use R to read in the file once and work with that imported data in an Rmd script. If you want to edit the file manually (e.g.in Excel) then make a copy of it first.

Reading Excel files

The readxl library is useful for this:

library(readxl)
read_xls('pone.0192758.s002.xls')
> # A tibble: 46 x 11
>    patients `placebo (yes = `expectancy (ye   age   sex `pre symptoms (
>       <dbl>            <dbl>            <dbl> <dbl> <dbl>            <dbl>
>  1        1                1                1    23     2             4.1 
>  2        2                1                1    21     2             3.57
>  3        3                1                1    25     2             4.6 
>  4        4                1                1    23     1             2.97
>  5        5                1                1    20     2             2.83
>  6        6                1                1    20     2             3.17
>  7        7                1                1    27     2             2.73
>  8        8                1                1    26     1             3.57
>  9        9                1                1    22     1             3.3 
> 10       10                1                1    21     2             2.2 
> #  with 36 more rows, and 5 more variables: `post symptoms (compositve
> #   score)` <dbl>, `pre HRQL (KSK)` <dbl>, `post HRQL (KSK)` <dbl>, `pre HRQL
> #   (PSK)` <dbl>, `post HRQL (PSK)` <dbl>
…
Explanation: The mutate_if function is allowing us to selectively apply the round function to columns which hold numeric data. This is important because we cant round text data. The first part says is.numeric, which is used as the test to check which columns to mutate: if the column is.numeric then it will be mutated. The second part says round, which is the name of the function we want to apply to the columns. The final part says digits=1, which is an option that is passed to round. It means we will round each column to 1 decimal place. You can set digits to 2 or 3 for APA format tables.

How many digits to use? See http://my.ilstu.edu/~mshesso/apa_stats.htm

One very small nitpick with rounding numbers is that "3.10" rounded to 1 decimal place would end up being displayed as "3.1". That is, without a trailing zero.

Some people get annoyed by this because it sometimes makes tables look weird. If you want to output a fixed number of zeros you can use the str_interp function:

Note this section is totally optional; you will not get marked down for using round as described above.

mtcars %>% 
  select(wt) %>% 
  rowwise() %>% 
  mutate(wt_fixed_width = str_interp("$[.2f]{wt}"))
> # A tibble: 32 x 2
> # Rowwise: 
>       wt wt_fixed_width
>    <dbl> <chr>         
>  1  2.62 2.62          
>  2  2.88 2.88          
>  3  2.32 2.32          
>  4  3.22 3.21          
>  5  3.44 3.44          
>  6  3.46 3.46          
>  7  3.57 3.57          
>  8  3.19 3.19          
>  9  3.15 3.15          
> 10  3.44 3.44          
> #  with 22 more rows
…
